<svg viewBox="0 0 64 64" xmlns="http://www.w3.org/2000/svg" aria-labelledby="title"
aria-describedby="desc" role="img" xmlns:xlink="http://www.w3.org/1999/xlink">
  <title>Chart</title>
  <desc>A line styled icon from Orion Icon Library.</desc>
  <path stroke-width="2"
  stroke-miterlimit="10" stroke="#33cc33" fill="none" d="M32 47C15.432 47 2 38.047 2 27v10c0 11.046 13.432 20 30 20a40.987 40.987 0 0 0 17-3.523v-10A41 41 0 0 1 32 47z"
  data-name="layer2" stroke-linejoin="round" stroke-linecap="round"></path>
  <path stroke-width="2" stroke-miterlimit="10" stroke="#33cc33"
  fill="none" d="M62 27C62 15.955 48.568 7 32 7S2 15.955 2 27s13.432 20 30 20a41 41 0 0 0 17-3.523V43M32 27V7.008 27"
  data-name="layer2" stroke-linejoin="round" stroke-linecap="round"></path>
  <path stroke-width="2" stroke-miterlimit="10" stroke="#003399"
  fill="none" d="M49 43.477v10C56.851 49.87 62 43.837 62 37V27c0 6.838-5.149 12.87-13 16.477z"
  data-name="layer1" stroke-linejoin="round" stroke-linecap="round"></path>
  <path stroke-width="2" stroke-linejoin="round" stroke="#003399"
  fill="none" d="M49 43v.477C56.851 39.87 62 33.838 62 27H32l8 7.529z" data-name="layer1"
  stroke-linecap="round"></path>
</svg>