<svg viewBox="0 0 64 64" xmlns="http://www.w3.org/2000/svg" aria-labelledby="title"
aria-describedby="desc" role="img" xmlns:xlink="http://www.w3.org/1999/xlink">
  <title>Drag Horizontal</title>
  <desc>A line styled icon from Orion Icon Library.</desc>
  <path d="M29 29H15.4l3.1-2.8-4-4.4L3 32l11.5 10.2 4-4.4-3.1-2.8H29m6 0h13.6l-3.1 2.8 4 4.4L61 32 49.5 21.8l-4 4.4 3.1 2.8H35"
  stroke-width="2" stroke-miterlimit="10" stroke-linecap="round" stroke="#33cc33"
  fill="none" data-name="layer2" stroke-linejoin="round"></path>
  <path d="M29 6h6v52h-6z" stroke-width="2" stroke-miterlimit="10"
  stroke-linecap="round" stroke="#003399" fill="none" data-name="layer1"
  stroke-linejoin="round"></path>
</svg>