<svg xmlns="http://www.w3.org/2000/svg" viewBox="0 0 64 64" aria-labelledby="title"
aria-describedby="desc" role="img" xmlns:xlink="http://www.w3.org/1999/xlink">
  <title>Flickr</title>
  <desc>A color styled icon from Orion Icon Library.</desc>
  <path data-name="layer2"
  d="M14.1 16.994a14 14 0 1 0 14.1 14 14.063 14.063 0 0 0-14.1-14z" fill="#005de1"></path>
  <path data-name="layer1" d="M50 16.994a14 14 0 1 0 14 14 14.041 14.041 0 0 0-14-14z"
  fill="#ff007e"></path>
</svg>