<svg xmlns="http://www.w3.org/2000/svg" viewBox="0 0 64 64" aria-labelledby="title"
aria-describedby="desc" role="img" xmlns:xlink="http://www.w3.org/1999/xlink">
  <title>Key</title>
  <desc>A line styled icon from Orion Icon Library.</desc>
  <path data-name="layer1"
  d="M56.7 7.3a18 18 0 0 0-28.7 21l-8 7.9V40h-6v6H8v6H4l-2 2v8h8l25.8-26A18 18 0 0 0 56.7 7.3zm-5.9 11.5a4 4 0 1 1 0-5.7 4 4 0 0 1 0 5.7z"
  fill="none" stroke="#003399" stroke-miterlimit="10" stroke-width="2" stroke-linejoin="round"
  stroke-linecap="round"></path>
</svg>