<svg xmlns="http://www.w3.org/2000/svg" viewBox="0 0 64 64" aria-labelledby="title"
aria-describedby="desc" role="img" xmlns:xlink="http://www.w3.org/1999/xlink">
  <title>Make Call</title>
  <desc>A line styled icon from Orion Icon Library.</desc>
  <path data-name="layer2"
  d="M58.9 47l-10.4-6.8a4.8 4.8 0 0 0-6.5 1.3c-2.4 2.9-5.3 7.7-16.2-3.2S19.6 24.4 22.5 22a4.8 4.8 0 0 0 1.3-6.5L17 5.1c-.9-1.3-2.1-3.4-4.9-3S2 6.6 2 15.6s7.1 20 16.8 29.7S39.5 62 48.4 62s13.2-8 13.5-10-1.7-4.1-3-5z"
  fill="none" stroke="#33cc33" stroke-miterlimit="10" stroke-width="2" stroke-linejoin="round"
  stroke-linecap="round"></path>
  <path data-name="layer1" d="M48 10v12m-6-6h12" fill="none" stroke="#003399"
  stroke-miterlimit="10" stroke-width="2" stroke-linejoin="round" stroke-linecap="round"></path>
  <circle data-name="layer1" cx="48" cy="16" r="14" fill="none" stroke="#003399"
  stroke-miterlimit="10" stroke-width="2" stroke-linejoin="round" stroke-linecap="round"></circle>
</svg>