<svg xmlns="http://www.w3.org/2000/svg" viewBox="0 0 64 64" aria-labelledby="title"
aria-describedby="desc" role="img" xmlns:xlink="http://www.w3.org/1999/xlink">
  <title>Paper Clip</title>
  <desc>A line styled icon from Orion Icon Library.</desc>
  <path data-name="layer1"
  d="M38 40V24a6 6 0 0 0-6-6 6 6 0 0 0-6 6v28a10 10 0 0 0 10 10 10 10 0 0 0 10-10V16A14 14 0 0 0 32 2a14 14 0 0 0-14 14v24"
  fill="none" stroke="#003399" stroke-miterlimit="10" stroke-width="2" stroke-linejoin="round"
  stroke-linecap="round"></path>
</svg>