<svg xmlns="http://www.w3.org/2000/svg" viewBox="0 0 64 64" aria-labelledby="title"
aria-describedby="desc" role="img" xmlns:xlink="http://www.w3.org/1999/xlink">
  <title>Performance</title>
  <desc>A line styled icon from Orion Icon Library.</desc>
  <path data-name="layer1"
  fill="none" stroke="#003399" stroke-miterlimit="10" stroke-width="2" d="M2 38h8M32 8v8m22 22h8M48 22l5.213-5.213"
  stroke-linejoin="round" stroke-linecap="round"></path>
  <path data-name="layer2" d="M15.183 22.544A.975.975 0 0 1 15 22a1 1 0 0 1 1.489-.873l18.748 11.821a5.999 5.999 0 1 1-8.153 8.486z"
  fill="none" stroke="#33cc33" stroke-miterlimit="10" stroke-width="2" stroke-linejoin="round"
  stroke-linecap="round"></path>
  <path data-name="layer1" d="M57.372 54a30 30 0 1 0-50.744 0z" fill="none"
  stroke="#003399" stroke-miterlimit="10" stroke-width="2" stroke-linejoin="round"
  stroke-linecap="round"></path>
</svg>