<svg xmlns="http://www.w3.org/2000/svg" viewBox="0 0 64 64" aria-labelledby="title"
aria-describedby="desc" role="img" xmlns:xlink="http://www.w3.org/1999/xlink">
  <title>Profile Settings</title>
  <desc>A line styled icon from Orion Icon Library.</desc>
  <path data-name="layer2"
  d="M34.2 51.5H2s0-7 9.4-8.8 8.6-3.6 8.6-5.2v-2a14.2 14.2 0 0 1-4-7c-2.5 0-4-3-4-6 0-.8 0-4 2-4-1.6-6.4-.4-13 4-13 10.4-7 25-1.5 20 13 2 0 2 3.2 2 4 0 3-1.5 6-4 6a14.1 14.1 0 0 1-4 7v2a3.8 3.8 0 0 0 2.5 3.5l1.1.6"
  fill="none" stroke="#33cc33" stroke-miterlimit="10" stroke-width="2" stroke-linejoin="round"
  stroke-linecap="round"></path>
  <circle data-name="layer1" cx="48" cy="47.5" r="4" fill="none"
  stroke="#003399" stroke-miterlimit="10" stroke-width="2" stroke-linejoin="round"
  stroke-linecap="round"></circle>
  <path data-name="layer1" d="M62 51.3l-3.1-1.8a11.2 11.2 0 0 0 .2-1.9 11.3 11.3 0 0 0-.2-2.1l2.8-1.7-3.7-6.5-2.9 1.7a9.5 9.5 0 0 0-3.1-2v-3.5h-8V37a9.8 9.8 0 0 0-3.2 2L38 37.3l-3.7 6.5 2.8 1.6a11 11 0 0 0 0 4.1L34 51.3l3.7 6.5 3-1.8a9.8 9.8 0 0 0 3.3 2.1v3.4h8v-3.4a9.6 9.6 0 0 0 3.2-2.1l3.1 1.8z"
  fill="none" stroke="#003399" stroke-miterlimit="10" stroke-width="2" stroke-linejoin="round"
  stroke-linecap="round"></path>
</svg>