<svg viewBox="0 0 64 64" xmlns="http://www.w3.org/2000/svg" aria-labelledby="title"
aria-describedby="desc" role="img" xmlns:xlink="http://www.w3.org/1999/xlink">
  <title>Random</title>
  <desc>A line styled icon from Orion Icon Library.</desc>
  <path d="M46.9 44.1l2.9 2.9h-8.6l-15-15 15-15h8.6l-2.9 2.9 4.2 4.2L61 14 51 4l-4.1 4.1 2.9 2.9h-11l-18 18H2v6h18.8l18 18h11l-2.9 2.9L51 60l10-10-9.9-10.1-4.2 4.2z"
  stroke-width="2" stroke-miterlimit="10" stroke-linecap="round" stroke="#003399"
  fill="none" data-name="layer1" stroke-linejoin="round"></path>
</svg>