<svg viewBox="0 0 64 64" xmlns="http://www.w3.org/2000/svg" aria-labelledby="title"
aria-describedby="desc" role="img" xmlns:xlink="http://www.w3.org/1999/xlink">
  <title>Receipt</title>
  <desc>A line styled icon from Orion Icon Library.</desc>
  <path d="M17.998 13.992h16m-16 20h16m-16-12.002h12m-12 20.004h12M42 13.992h3.996m-3.996 20h3.996M42 21.99h3.996M42 41.994h3.996"
  stroke-width="2" stroke-miterlimit="10" stroke="#33cc33" fill="none" data-name="layer2"
  stroke-linejoin="round" stroke-linecap="round"></path>
  <path d="M8.027 4.006v55.976l5.979-3.986 6.064 3.998 5.977-3.998 6 3.986 5.978-3.986 5.998 3.986 5.981-3.986L56 59.982V4.006M44.023 59.994v-.012.012zm-11.976 0v-.012.012zM2 4.006h60"
  stroke-width="2" stroke-miterlimit="10" stroke="#003399" fill="none" data-name="layer1"
  stroke-linejoin="round" stroke-linecap="round"></path>
</svg>