<svg xmlns="http://www.w3.org/2000/svg" viewBox="0 0 64 64" aria-labelledby="title"
aria-describedby="desc" role="img" xmlns:xlink="http://www.w3.org/1999/xlink">
  <title>Resize Diagonal</title>
  <desc>A line styled icon from Orion Icon Library.</desc>
  <path data-name="layer1"
  fill="none" stroke="#003399" stroke-miterlimit="10" stroke-width="2" d="M41 8v6h4.755L14 45.756V41H8v15h15v-6h-4.76L50 18.24V23h6V8H41z"
  stroke-linejoin="round" stroke-linecap="round"></path>
</svg>