<svg xmlns="http://www.w3.org/2000/svg" viewBox="0 0 64 64" aria-labelledby="title"
aria-describedby="desc" role="img" xmlns:xlink="http://www.w3.org/1999/xlink">
  <title>Set Square</title>
  <desc>A line styled icon from Orion Icon Library.</desc>
  <path data-name="layer2"
  fill="none" stroke="#33cc33" stroke-miterlimit="10" stroke-width="2" d="M60.6 60.6H3.4V3.4l57.2 57.2z"
  stroke-linejoin="round" stroke-linecap="round"></path>
  <path data-name="layer2" fill="none" stroke="#33cc33" stroke-miterlimit="10"
  stroke-width="2" d="M37.4 52.6h-26v-26l26 26z" stroke-linejoin="round"
  stroke-linecap="round"></path>
  <path data-name="layer1" fill="none" stroke="#003399" stroke-miterlimit="10"
  stroke-width="2" d="M9.4 15.8l3.2-3.2m3.2 9.7l3.3-3.2m3.2 9.6l3.2-3.2m3.3 9.7L32 32m3.3 9.7l3.2-3.2m3.2 9.7l3.2-3.3m3.3 9.7l3.2-3.2"
  stroke-linejoin="round" stroke-linecap="round"></path>
</svg>