<svg xmlns="http://www.w3.org/2000/svg" viewBox="0 0 64 64" aria-labelledby="title"
aria-describedby="desc" role="img" xmlns:xlink="http://www.w3.org/1999/xlink">
  <title>Spray Paint</title>
  <desc>A line styled icon from Orion Icon Library.</desc>
  <path data-name="layer2"
  fill="none" stroke="#33cc33" stroke-miterlimit="10" stroke-width="2" d="M30 33.1h14v20H30M39 12V6h5v6M11 9h15m.9 3l-15 4m0-14l15 4"
  stroke-linejoin="round" stroke-linecap="round"></path>
  <path data-name="layer1" fill="none" stroke="#003399" stroke-miterlimit="10"
  stroke-width="2" d="M30 23.4h23v38.59H30zm23 0a11.4 11.4 0 0 0-4.9-9.4v-2H34.9v2.1a11.4 11.4 0 0 0-4.9 9.3"
  stroke-linejoin="round" stroke-linecap="round"></path>
</svg>