<svg xmlns="http://www.w3.org/2000/svg" viewBox="0 0 64 64" aria-labelledby="title"
aria-describedby="desc" role="img" xmlns:xlink="http://www.w3.org/1999/xlink">
  <title>Stopwatch</title>
  <desc>A line styled icon from Orion Icon Library.</desc>
  <rect data-name="layer1"
  x="50.896" y="8.453" width="10.209" height="5.104" rx="1" ry="1" transform="rotate(45 56 11.005)"
  fill="none" stroke="#003399" stroke-linecap="round" stroke-miterlimit="10"
  stroke-width="2" stroke-linejoin="round"></rect>
  <path data-name="layer1" fill="none" stroke="#003399" stroke-linecap="round"
  stroke-miterlimit="10" stroke-width="2" d="M49.877 17.128l4.318-4.318"
  stroke-linejoin="round"></path>
  <circle data-name="layer2" cx="32" cy="36.006" r="26" fill="none"
  stroke="#33cc33" stroke-linecap="round" stroke-miterlimit="10" stroke-width="2"
  stroke-linejoin="round"></circle>
  <path data-name="layer2" d="M29 10.177V4.006a1 1 0 0 1 1-1h4a1 1 0 0 1 1 1v6.171"
  fill="none" stroke="#33cc33" stroke-linecap="round" stroke-miterlimit="10"
  stroke-width="2" stroke-linejoin="round"></path>
  <path data-name="layer1" fill="none" stroke="#003399" stroke-linecap="round"
  stroke-miterlimit="10" stroke-width="2" d="M32 16.006v17" stroke-linejoin="round"></path>
  <circle data-name="layer1" cx="32" cy="36.006" r="3" fill="none"
  stroke="#003399" stroke-linecap="round" stroke-miterlimit="10" stroke-width="2"
  stroke-linejoin="round"></circle>
  <path data-name="layer1" fill="none" stroke="#003399" stroke-linecap="round"
  stroke-miterlimit="10" stroke-width="2" d="M32 39.006v6.031" stroke-linejoin="round"></path>
</svg>