<svg viewBox="0 0 64 64" xmlns="http://www.w3.org/2000/svg" aria-labelledby="title"
aria-describedby="desc" role="img" xmlns:xlink="http://www.w3.org/1999/xlink">
  <title>Stretch Vertical</title>
  <desc>A line styled icon from Orion Icon Library.</desc>
  <path stroke-width="2"
  stroke-miterlimit="10" stroke-linecap="round" stroke="#003399" fill="none"
  d="M20.8 15a3 3 0 1 0 4.5 4l2.7-3.1v32.2L25.2 45a3 3 0 0 0-4.5 4L31 61l10.2-12a3 3 0 1 0-4.5-4L34 48.1V15.9l2.8 3.1a3 3 0 0 0 4.5-4L31 3z"
  data-name="layer1" stroke-linejoin="round"></path>
</svg>