<svg xmlns="http://www.w3.org/2000/svg" viewBox="0 0 223 222" xmlns:xlink="http://www.w3.org/1999/xlink"
shape-rendering="geometricPrecision" text-rendering="geometricPrecision"
image-rendering="optimizeQuality" fill-rule="evenodd" clip-rule="evenodd"
aria-labelledby="title" aria-describedby="desc" role="img">
  <title>gcx</title>
  <desc>A color styled icon from Orion Icon Library.</desc>
  <g stroke-width=".437"
  data-name="layer1" fill="#000">
    <path d="M188 159h1c27-35 25-86-7-118C149 9 98 7 63 35l11 10c29-22 71-20 98 6 26 26 28 68 6 97v1l10 10zM84 56l11 11 1-1c17-11 40-9 55 6 14 15 16 38 6 55h-1l11 11c16-23 14-55-6-76-21-21-53-23-77-6zm22 22l39 38c5-10 3-24-6-33-8-9-22-10-33-5z"
    fill="#fff" stroke="#fff" data-name="stroke" stroke-width="2" stroke-linejoin="round"
    stroke-linecap="round"></path>
    <path d="M199 170l-11-11c28-35 26-86-6-118C149 9 98 7 63 35L52 24c41-34 102-32 140 6s41 99 7 140zm-21-21l-11-11c16-23 14-55-6-76-21-21-53-23-77-6L74 45c29-22 71-20 97 7 27 26 29 68 7 97zm-22-22l-11-11c5-10 3-24-6-33s-22-10-33-5L95 67c17-11 40-9 55 6s17 37 6 54z"
    fill="#3c3" stroke="#3c3" data-name="stroke" stroke-width="2" stroke-linejoin="round"
    stroke-linecap="round"></path>
  </g>
  <path d="M159 188l-10-11c-29 22-71 20-97-6-27-27-29-69-7-98l11 11c-17 23-15 55 6 76s53 23 76 6l10 10L27 54h-1l9 8C7 98 9 149 41 181s83 35 118 7zm-32-32l-11-11c-10 5-24 3-33-6s-10-23-5-33L67 95c-11 17-9 40 6 54 15 15 37 17 54 7z"
  fill="#fff" data-name="layer2"></path>
  <path d="M170 198l-11-10c-35 28-86 25-118-7S7 98 35 62L24 52c-34 41-32 102 6 140s99 40 140 6zm-21-21l-11-11c-23 17-55 15-76-6s-23-53-6-76L45 73c-22 29-20 71 7 98 26 26 68 28 97 6zm-22-21l-11-11c-10 5-24 3-33-6s-10-23-5-33L67 95c-11 17-9 40 6 54 15 15 37 17 54 7z"
  fill="#039" stroke="#039" stroke-width="2" data-name="stroke" stroke-linejoin="round"
  stroke-linecap="round"></path>
  <path d="M83 101l48-10-11 47-37-37zm33 21zm0 0zm-17-17zm0 0zm0 0l17 17-17-17zm17 17zm-24-18zm25 25l-25-25 25 25zm-25-25zm23-2l6-2-6 2zm-16 3zm20 23zm0 0zm-26-26zm0 0zm0 0zm0 0zm0 0zm0 0zm0 0zm0 0l1 2-1-2zm26 26zm-26-26zm0 0l23-5-23 5zm-10-1zm37 37l-37-37 37 37zm-37-37zm33-4l11-2-11 2zm0 0l-23 5 23-5zm-23 5l23-5-23 5zm28-2l-5 22 5-22zm-27 4l31-6-8 29 2 1-2-1v2l-25-25h2zm-1-2zm34-7l-8 33 8-33zm-34 7z"
  fill="#039" data-name="layer3"></path>
  <path d="M83 101l48-10-11 47-37-37zm33 21zm0 0zm-17-17zm0 0zm0 0l17 17-17-17zm17 17zm-24-18zm25 25l-25-25 25 25zm-25-25zm23-2l6-2-6 2zm-16 3zm20 23zm0 0zm-26-26zm0 0zm0 0zm0 0l1 2-1-2zm26 26zm-26-26l23-5-23 5zm-10-1zm37 37l-37-37 37 37zm-37-37zm33-4l11-2-11 2zm0 0l-23 5m0 0l23-5m5 3l-5 22 5-22zm-27 4l31-6-8 29 2 1-2-1v2l-25-25h2zm-1-2zm34-7l-8 33 8-33zm-34 7z"
  fill="none" stroke="#039" stroke-width="2" data-name="stroke" stroke-linejoin="round"
  stroke-linecap="round"></path>
  <path d="M92 104l33-6-8 31-25-25zm24 18zm0 0zm-17-17zm0 0zm0 0zm0 0zm0 0zm0 0zm0 0zm0 0l17 17-17-17zm17 17zm-17-17zm0 0zm0 0l16-3-16 3zm-7-1zm25 25l-25-25 25 25zm-25-25zm23-2l6-2-5 22 5-22-6 2zm0 0l-16 3 16-3zm-16 3l16-3-16 3zm0 0z"
  fill="#3c3" data-name="layer4"></path>
  <path d="M92 104l33-6-8 31-25-25zm24 18zm0 0zm-17-17zm0 0zm0 0zm0 0l17 17-17-17zm17 17zm-17-17l16-3-16 3zm-7-1zm25 25l-25-25 25 25zm-25-25zm23-2l6-2-5 22 5-22-6 2zm0 0l-16 3m0 0l16-3m-16 3z"
  fill="none" stroke="#3c3" stroke-width="2" data-name="stroke" stroke-linejoin="round"
  stroke-linecap="round"></path>
</svg>